{
	"info": {
		"_postman_id": "0ccc199d-e9b1-4134-bc0f-0a307fd656b0",
		"name": "api-ibm-atm",
		"schema": "https://schema.getpostman.com/json/collection/v2.1.0/collection.json"
	},
	"item": [
		{
			"name": "contanova",
			"request": {
				"method": "POST",
				"header": [
					{
						"key": "Content-Type",
						"value": "application/json",
						"type": "text"
					},
					{
						"key": "Accept-Encoding",
						"value": "utf-8",
						"type": "text"
					}
				],
				"body": {
					"mode": "raw",
					"raw": "{\n  \"txtCliente\": \"Cliente 2\"\n}"
				},
				"url": {
					"raw": "{{baseUrl}}/conta",
					"host": [
						"{{baseUrl}}"
					],
					"path": [
						"conta"
					]
				}
			},
			"response": []
		},
		{
			"name": "contalista",
			"request": {
				"method": "GET",
				"header": [
					{
						"key": "Content-Type",
						"value": "application/json",
						"type": "text"
					}
				],
				"url": {
					"raw": "{{baseUrl}}/conta",
					"host": [
						"{{baseUrl}}"
					],
					"path": [
						"conta"
					],
					"query": [
						{
							"key": "",
							"value": "",
							"disabled": true
						}
					]
				}
			},
			"response": []
		},
		{
			"name": "conta extrato",
			"request": {
				"method": "GET",
				"header": [
					{
						"key": "Content-Type",
						"type": "text",
						"value": "application/json"
					}
				],
				"url": {
					"raw": "{{baseUrl}}/conta/extrato?conta=64023967-e7c7-486b-95d2-087660ec7aed",
					"host": [
						"{{baseUrl}}"
					],
					"path": [
						"conta",
						"extrato"
					],
					"query": [
						{
							"key": "conta",
							"value": "64023967-e7c7-486b-95d2-087660ec7aed"
						}
					]
				}
			},
			"response": []
		},
		{
			"name": "caixa criar",
			"request": {
				"method": "POST",
				"header": [
					{
						"key": "Content-Type",
						"type": "text",
						"value": "application/json"
					},
					{
						"key": "Accept-Encoding",
						"type": "text",
						"value": "utf-8"
					}
				],
				"body": {
					"mode": "raw",
					"raw": "{\n  \"data\": \"14/07/2019\",\n  \"vlrSaldoInicial\": 100\n}"
				},
				"url": {
					"raw": "{{baseUrl}}/caixa/criar",
					"host": [
						"{{baseUrl}}"
					],
					"path": [
						"caixa",
						"criar"
					]
				}
			},
			"response": []
		},
		{
			"name": "caixa abrir",
			"request": {
				"method": "POST",
				"header": [
					{
						"key": "Content-Type",
						"type": "text",
						"value": "application/json"
					},
					{
						"key": "Accept-Encoding",
						"type": "text",
						"value": "utf-8"
					}
				],
				"body": {
					"mode": "raw",
					"raw": "{\n  \"data\": \"14/07/2019\",\n  \"vlrSaldoInicial\": 100\n}"
				},
				"url": {
					"raw": "{{baseUrl}}/caixa/abrir",
					"host": [
						"{{baseUrl}}"
					],
					"path": [
						"caixa",
						"abrir"
					]
				}
			},
			"response": []
		},
		{
			"name": "caixa fechar",
			"request": {
				"method": "POST",
				"header": [
					{
						"key": "Content-Type",
						"type": "text",
						"value": "application/json"
					},
					{
						"key": "Accept-Encoding",
						"type": "text",
						"value": "utf-8"
					}
				],
				"body": {
					"mode": "raw",
					"raw": "{\n  \"data\": \"14/07/2019\"\n}"
				},
				"url": {
					"raw": "{{baseUrl}}/caixa/fechar",
					"host": [
						"{{baseUrl}}"
					],
					"path": [
						"caixa",
						"fechar"
					]
				}
			},
			"response": []
		},
		{
			"name": "caixa atual",
			"request": {
				"method": "GET",
				"header": [
					{
						"key": "Content-Type",
						"type": "text",
						"value": "application/json"
					},
					{
						"key": "Accept-Encoding",
						"type": "text",
						"value": "utf-8"
					}
				],
				"url": {
					"raw": "{{baseUrl}}/caixa/atual",
					"host": [
						"{{baseUrl}}"
					],
					"path": [
						"caixa",
						"atual"
					]
				}
			},
			"response": []
		},
		{
			"name": "caixa extrato",
			"request": {
				"method": "GET",
				"header": [
					{
						"key": "Content-Type",
						"type": "text",
						"value": "application/json"
					},
					{
						"key": "Accept-Encoding",
						"type": "text",
						"value": "utf-8"
					}
				],
				"url": {
					"raw": "{{baseUrl}}/caixa/extrato?caixa=70e3f22b-ece0-4a93-a935-a697c7f07818",
					"host": [
						"{{baseUrl}}"
					],
					"path": [
						"caixa",
						"extrato"
					],
					"query": [
						{
							"key": "caixa",
							"value": "70e3f22b-ece0-4a93-a935-a697c7f07818"
						}
					]
				}
			},
			"response": []
		},
		{
			"name": "operacao deposito dinheiro",
			"request": {
				"method": "POST",
				"header": [
					{
						"key": "Content-Type",
						"type": "text",
						"value": "application/json"
					},
					{
						"key": "Accept-Encoding",
						"type": "text",
						"value": "utf-8"
					}
				],
				"body": {
					"mode": "raw",
					"raw": "{\n  \"caixa\": { \"data\": \"14/07/2019\" },\n  \"conta\": { \"id\": \"64023967-e7c7-486b-95d2-087660ec7aed\" },\n  \"vlrMovimento\": 250,\n  \"tipoMovimentacao\":\"DEPOSITO_DINHEIRO\"\n}"
				},
				"url": {
					"raw": "{{baseUrl}}/operacao/deposito",
					"host": [
						"{{baseUrl}}"
					],
					"path": [
						"operacao",
						"deposito"
					]
				}
			},
			"response": []
		},
		{
			"name": "operacao deposito cheque",
			"request": {
				"method": "POST",
				"header": [
					{
						"key": "Content-Type",
						"type": "text",
						"value": "application/json"
					},
					{
						"key": "Accept-Encoding",
						"type": "text",
						"value": "utf-8"
					}
				],
				"body": {
					"mode": "raw",
					"raw": "{\n  \"caixa\": { \"data\": \"14/07/2019\" },\n  \"conta\": { \"id\": \"64023967-e7c7-486b-95d2-087660ec7aed\" },\n  \"vlrMovimento\": 150,\n  \"tipoMovimentacao\":\"DEPOSITO_CHEQUE\"\n}"
				},
				"url": {
					"raw": "{{baseUrl}}/operacao/deposito",
					"host": [
						"{{baseUrl}}"
					],
					"path": [
						"operacao",
						"deposito"
					]
				}
			},
			"response": []
		},
		{
			"name": "operacao saque",
			"request": {
				"method": "POST",
				"header": [
					{
						"key": "Content-Type",
						"type": "text",
						"value": "application/json"
					},
					{
						"key": "Accept-Encoding",
						"type": "text",
						"value": "utf-8"
					}
				],
				"body": {
					"mode": "raw",
					"raw": "{\n  \"caixa\": { \"data\": \"14/07/2019\" },\n  \"conta\": { \"id\": \"64023967-e7c7-486b-95d2-087660ec7aed\" },\n  \"vlrMovimento\": 25,\n  \"tipoMovimentacao\":\"SAQUE\"\n}"
				},
				"url": {
					"raw": "{{baseUrl}}/operacao/saque",
					"host": [
						"{{baseUrl}}"
					],
					"path": [
						"operacao",
						"saque"
					]
				}
			},
			"response": []
		},
		{
			"name": "operacao transferencia",
			"request": {
				"method": "POST",
				"header": [
					{
						"key": "Content-Type",
						"type": "text",
						"value": "application/json"
					},
					{
						"key": "Accept-Encoding",
						"type": "text",
						"value": "utf-8"
					}
				],
				"body": {
					"mode": "raw",
					"raw": "{\n  \"caixa\": { \"data\": \"17/07/2019\" },\n  \"contaOrigem\": { \"id\": \"64023967-e7c7-486b-95d2-087660ec7aed\" },\n  \"contaDestino\": { \"id\": \"601c6540-065e-413b-a521-ebbf769d9d38\" },\n  \"vlrTransferencia\": 120\n}"
				},
				"url": {
					"raw": "{{baseUrl}}/operacao/transfere",
					"host": [
						"{{baseUrl}}"
					],
					"path": [
						"operacao",
						"transfere"
					]
				}
			},
			"response": []
		}
	]
}